…
contig_summary<-all_antismash_clean %>%
  group_by(Isolate) %>%
  summarise(
    n_contigs=n_distinct(Chromosome),
    n_regions=n(),
    contig_names=paste(unique(Chromosome), collapse=", "),
    .groups="drop"
  )
contig_summary
```

    ## # A tibble: 61 × 4
    ##    Isolate   n_contigs n_regions contig_names                                   
    ##    <chr>         <int>     <int> <chr>                                          
    ##  1 0423_1           12        56 0423_1_cont_00, 0423_1_cont_01, 0423_1_cont_02…
    ##  2 2012_1           19        54 2012_1_cont_00, 2012_1_cont_01, 2012_1_cont_02…
    ##  3 2403_1           10        56 2403_1_cont_00, 2403_1_cont_01, 2403_1_cont_02…
    ##  4 24_22_1_1        11        56 24_22_1_1_cont_00, 24_22_1_1_cont_01, 24_22_1_…
    ##  5 70_15             8        50 1, 2, 3, 4, 5, 6, 7, supercont8.8              
    ##  6 75A49            10        51 75A49_chr1_con2, 75A49_chr1_con6, 75A49_chr2_c…
    ##  7 83R_131B          9        53 83R_131B_cont00, 83R_131B_cont01, 83R_131B_con…
    ##  8 85_141            8        55 85_141_cont_00, 85_141_cont_01, 85_141_cont_02…
    ##  9 87_175           11        53 87_175_cont_00, 87_175_cont_01, 87_175_cont_02…
    ## 10 AG002            15        56 AG002_chr1_con4, AG002_chr1_con5, AG002_chr1_c…
    ## # ℹ 51 more rows
…
